File-Name 					 Clustering-Cost 		 Stability 	 Improved
----------------------------------------------------------------------------------------------------------
component_0000_size_7_cutoff_1.0E-20.cm 		3.3462486267089844 	 --	 --
component_0001_size_9_cutoff_1.0E-20.cm 		9.821252822875977 	 --	 --
component_0002_size_11_cutoff_1.0E-20.cm 		0 	 --	 --
component_0003_size_51_cutoff_1.0E-20.cm 		2387.395776748657 	 --	 --
component_0004_size_10_cutoff_1.0E-20.cm 		35.02019500732422 	 --	 --
component_0005_size_7_cutoff_1.0E-20.cm 		8.084495544433594 	 --	 --
component_0006_size_25_cutoff_1.0E-20.cm 		174.78164386749268 	 --	 --
component_0007_size_13_cutoff_1.0E-20.cm 		0 	 --	 --
component_0008_size_85_cutoff_1.0E-20.cm 		2242.742527961731 	 --	 --
component_0009_size_18_cutoff_1.0E-20.cm 		118.19201469421387 	 --	 --
component_0010_size_35_cutoff_1.0E-20.cm 		2.2799243927001953 	 --	 --
component_0012_size_26_cutoff_1.0E-20.cm 		266.1158676147461 	 --	 --
component_0013_size_6_cutoff_1.0E-20.cm 		0 	 --	 --
component_0014_size_18_cutoff_1.0E-20.cm 		22.26959800720215 	 --	 --
component_0016_size_37_cutoff_1.0E-20.cm 		660.7709846496582 	 --	 --
component_0017_size_56_cutoff_1.0E-20.cm 		955.8077564239502 	 --	 --
component_0018_size_13_cutoff_1.0E-20.cm 		90.30084800720215 	 --	 --
component_0019_size_8_cutoff_1.0E-20.cm 		4.17645263671875 	 --	 --
component_0020_size_39_cutoff_1.0E-20.cm 		381.4602689743042 	 --	 --
component_0021_size_38_cutoff_1.0E-20.cm 		560.8450613021851 	 --	 --
component_0022_size_17_cutoff_1.0E-20.cm 		202.20753383636475 	 --	 --
component_0023_size_9_cutoff_1.0E-20.cm 		50.767866134643555 	 --	 --
component_0024_size_71_cutoff_1.0E-20.cm 		769.8082332611084 	 --	 --
component_0025_size_10_cutoff_1.0E-20.cm 		15.429328918457031 	 --	 --
component_0026_size_46_cutoff_1.0E-20.cm 		1404.2019805908203 	 --	 --
component_0027_size_9_cutoff_1.0E-20.cm 		171.18178749084473 	 --	 --
component_0028_size_27_cutoff_1.0E-20.cm 		70.15837478637695 	 --	 --
component_0029_size_12_cutoff_1.0E-20.cm 		79.28650665283203 	 --	 --
component_0030_size_77_cutoff_1.0E-20.cm 		1748.517508506775 	 --	 --
component_0031_size_67_cutoff_1.0E-20.cm 		1378.077820777893 	 --	 --
component_0032_size_9_cutoff_1.0E-20.cm 		39.80866622924805 	 --	 --
component_0033_size_9_cutoff_1.0E-20.cm 		20.0 	 --	 --
component_0034_size_14_cutoff_1.0E-20.cm 		31.413145065307617 	 --	 --
component_0035_size_24_cutoff_1.0E-20.cm 		1547.6233081817627 	 --	 --
component_0036_size_16_cutoff_1.0E-20.cm 		37.35811710357666 	 --	 --
component_0037_size_24_cutoff_1.0E-20.cm 		860.0 	 --	 --
component_0038_size_25_cutoff_1.0E-20.cm 		167.49411582946777 	 --	 --
component_0039_size_20_cutoff_1.0E-20.cm 		60.675960540771484 	 --	 --
component_0040_size_5_cutoff_1.0E-20.cm 		0 	 --	 --
component_0041_size_7_cutoff_1.0E-20.cm 		2.608755111694336 	 --	 --
component_0042_size_7_cutoff_1.0E-20.cm 		0 	 --	 --
component_0043_size_10_cutoff_1.0E-20.cm 		1.1079063415527344 	 --	 --
component_0044_size_8_cutoff_1.0E-20.cm 		0.796966552734375 	 --	 --
component_0045_size_14_cutoff_1.0E-20.cm 		22.244277954101562 	 --	 --
component_0047_size_12_cutoff_1.0E-20.cm 		2.1583633422851562 	 --	 --
component_0048_size_14_cutoff_1.0E-20.cm 		51.503472328186035 	 --	 --
component_0049_size_24_cutoff_1.0E-20.cm 		493.8189239501953 	 --	 --
component_0050_size_5_cutoff_1.0E-20.cm 		20.443695068359375 	 --	 --
component_0051_size_5_cutoff_1.0E-20.cm 		4.292255401611328 	 --	 --
component_0052_size_12_cutoff_1.0E-20.cm 		54.78586006164551 	 --	 --
component_0054_size_8_cutoff_1.0E-20.cm 		0 	 --	 --
component_0056_size_17_cutoff_1.0E-20.cm 		122.75207328796387 	 --	 --
component_0057_size_7_cutoff_1.0E-20.cm 		34.104129791259766 	 --	 --
component_0058_size_11_cutoff_1.0E-20.cm 		0 	 --	 --
component_0059_size_21_cutoff_1.0E-20.cm 		65.79048919677734 	 --	 --
component_0060_size_11_cutoff_1.0E-20.cm 		25.33612632751465 	 --	 --
component_0061_size_6_cutoff_1.0E-20.cm 		14.408239364624023 	 --	 --
component_0062_size_23_cutoff_1.0E-20.cm 		51.91856002807617 	 --	 --
component_0063_size_7_cutoff_1.0E-20.cm 		0 	 --	 --
component_0064_size_19_cutoff_1.0E-20.cm 		76.72496604919434 	 --	 --
component_0065_size_14_cutoff_1.0E-20.cm 		12.889259338378906 	 --	 --
component_0066_size_12_cutoff_1.0E-20.cm 		99.10612106323242 	 --	 --
component_0067_size_15_cutoff_1.0E-20.cm 		129.4211778640747 	 --	 --
component_0068_size_31_cutoff_1.0E-20.cm 		756.2467956542969 	 --	 --
component_0069_size_16_cutoff_1.0E-20.cm 		201.59061336517334 	 --	 --
component_0070_size_17_cutoff_1.0E-20.cm 		50.80368709564209 	 --	 --
component_0071_size_42_cutoff_1.0E-20.cm 		2938.4294090270996 	 --	 --
component_0072_size_44_cutoff_1.0E-20.cm 		49.790767669677734 	 --	 --
component_0073_size_16_cutoff_1.0E-20.cm 		56.73921012878418 	 --	 --
component_0074_size_66_cutoff_1.0E-20.cm 		177.3096218109131 	 --	 --
component_0075_size_7_cutoff_1.0E-20.cm 		46.986905097961426 	 --	 --
component_0076_size_17_cutoff_1.0E-20.cm 		54.200355529785156 	 --	 --
component_0077_size_12_cutoff_1.0E-20.cm 		100.0 	 --	 --
component_0078_size_13_cutoff_1.0E-20.cm 		68.29963493347168 	 --	 --
component_0079_size_9_cutoff_1.0E-20.cm 		21.049100875854492 	 --	 --
component_0080_size_7_cutoff_1.0E-20.cm 		0.6836585998535156 	 --	 --
component_0081_size_17_cutoff_1.0E-20.cm 		178.753511428833 	 --	 --
component_0082_size_92_cutoff_1.0E-20.cm 		3158.3200216293335 	 --	 --
component_0083_size_8_cutoff_1.0E-20.cm 		2.7350692749023438 	 --	 --
component_0084_size_35_cutoff_1.0E-20.cm 		796.7421264648438 	 --	 --
component_0085_size_10_cutoff_1.0E-20.cm 		3.1760921478271484 	 --	 --
component_0086_size_14_cutoff_1.0E-20.cm 		0 	 --	 --
component_0087_size_13_cutoff_1.0E-20.cm 		39.20335674285889 	 --	 --
component_0088_size_53_cutoff_1.0E-20.cm 		1359.1091318130493 	 --	 --
component_0089_size_22_cutoff_1.0E-20.cm 		77.56545829772949 	 --	 --
component_0090_size_6_cutoff_1.0E-20.cm 		54.89008331298828 	 --	 --
component_0091_size_6_cutoff_1.0E-20.cm 		7.530866622924805 	 --	 --
component_0092_size_47_cutoff_1.0E-20.cm 		351.67387771606445 	 --	 --
component_0093_size_81_cutoff_1.0E-20.cm 		3356.012031555176 	 --	 --
component_0094_size_25_cutoff_1.0E-20.cm 		168.7565860748291 	 --	 --
component_0095_size_5_cutoff_1.0E-20.cm 		3.4216041564941406 	 --	 --
component_0096_size_14_cutoff_1.0E-20.cm 		143.58146286010742 	 --	 --
component_0097_size_17_cutoff_1.0E-20.cm 		74.1181993484497 	 --	 --
component_0098_size_14_cutoff_1.0E-20.cm 		67.28160381317139 	 --	 --
component_0099_size_9_cutoff_1.0E-20.cm 		5.2927703857421875 	 --	 --
component_0100_size_11_cutoff_1.0E-20.cm 		176.9936695098877 	 --	 --
component_0101_size_57_cutoff_1.0E-20.cm 		4.577512741088867 	 --	 --
component_0102_size_20_cutoff_1.0E-20.cm 		111.64159679412842 	 --	 --
component_0103_size_10_cutoff_1.0E-20.cm 		59.05764198303223 	 --	 --
component_0104_size_7_cutoff_1.0E-20.cm 		6.197179794311523 	 --	 --
component_0105_size_10_cutoff_1.0E-20.cm 		8.59079360961914 	 --	 --
component_0106_size_4_cutoff_1.0E-20.cm 		0 	 --	 --
component_0107_size_12_cutoff_1.0E-20.cm 		158.56274604797363 	 --	 --
component_0108_size_22_cutoff_1.0E-20.cm 		181.23731231689453 	 --	 --
component_0109_size_7_cutoff_1.0E-20.cm 		5.369062423706055 	 --	 --
component_0110_size_8_cutoff_1.0E-20.cm 		10.099594116210938 	 --	 --
component_0111_size_10_cutoff_1.0E-20.cm 		55.00822734832764 	 --	 --
component_0112_size_7_cutoff_1.0E-20.cm 		10.634244918823242 	 --	 --
component_0113_size_14_cutoff_1.0E-20.cm 		186.00556564331055 	 --	 --
component_0114_size_10_cutoff_1.0E-20.cm 		27.2188777923584 	 --	 --
component_0115_size_18_cutoff_1.0E-20.cm 		127.19094848632812 	 --	 --
component_0116_size_7_cutoff_1.0E-20.cm 		33.34182929992676 	 --	 --
component_0117_size_61_cutoff_1.0E-20.cm 		918.2045555114746 	 --	 --
component_0118_size_18_cutoff_1.0E-20.cm 		117.75433158874512 	 --	 --
component_0119_size_30_cutoff_1.0E-20.cm 		467.0630979537964 	 --	 --
component_0120_size_30_cutoff_1.0E-20.cm 		519.3850288391113 	 --	 --
component_0121_size_18_cutoff_1.0E-20.cm 		89.49374771118164 	 --	 --
component_0122_size_7_cutoff_1.0E-20.cm 		0 	 --	 --
component_0123_size_15_cutoff_1.0E-20.cm 		57.42272663116455 	 --	 --
component_0124_size_16_cutoff_1.0E-20.cm 		82.61260795593262 	 --	 --
component_0125_size_17_cutoff_1.0E-20.cm 		32.09139442443848 	 --	 --
component_0126_size_4_cutoff_1.0E-20.cm 		3.2765426635742188 	 --	 --
component_0127_size_17_cutoff_1.0E-20.cm 		47.443124771118164 	 --	 --
component_0128_size_10_cutoff_1.0E-20.cm 		6.183809280395508 	 --	 --
component_0129_size_15_cutoff_1.0E-20.cm 		240.0 	 --	 --
component_0130_size_19_cutoff_1.0E-20.cm 		13.156427383422852 	 --	 --
component_0131_size_16_cutoff_1.0E-20.cm 		90.07198715209961 	 --	 --
component_0132_size_11_cutoff_1.0E-20.cm 		63.548662185668945 	 --	 --
component_0133_size_18_cutoff_1.0E-20.cm 		225.02784824371338 	 --	 --
component_0134_size_12_cutoff_1.0E-20.cm 		26.873409271240234 	 --	 --
component_0135_size_13_cutoff_1.0E-20.cm 		23.350247383117676 	 --	 --
component_0136_size_26_cutoff_1.0E-20.cm 		214.13421249389648 	 --	 --
component_0137_size_22_cutoff_1.0E-20.cm 		887.2160301208496 	 --	 --
component_0138_size_7_cutoff_1.0E-20.cm 		0 	 --	 --
component_0139_size_17_cutoff_1.0E-20.cm 		135.17810821533203 	 --	 --
component_0140_size_33_cutoff_1.0E-20.cm 		200.80331897735596 	 --	 --
component_0141_size_14_cutoff_1.0E-20.cm 		2.910623550415039 	 --	 --
component_0142_size_4_cutoff_1.0E-20.cm 		1.9172134399414062 	 --	 --
component_0143_size_15_cutoff_1.0E-20.cm 		136.33349418640137 	 --	 --
component_0144_size_45_cutoff_1.0E-20.cm 		1593.372320175171 	 --	 --
component_0145_size_8_cutoff_1.0E-20.cm 		21.36968994140625 	 --	 --
component_0146_size_14_cutoff_1.0E-20.cm 		76.11930084228516 	 --	 --
component_0147_size_6_cutoff_1.0E-20.cm 		0.5845108032226562 	 --	 --
component_0148_size_14_cutoff_1.0E-20.cm 		27.62257957458496 	 --	 --
component_0149_size_26_cutoff_1.0E-20.cm 		131.50899124145508 	 --	 --
component_0150_size_11_cutoff_1.0E-20.cm 		9.754827499389648 	 --	 --
component_0151_size_19_cutoff_1.0E-20.cm 		1.28460693359375 	 --	 --
component_0152_size_11_cutoff_1.0E-20.cm 		3.1126060485839844 	 --	 --
component_0153_size_7_cutoff_1.0E-20.cm 		19.579018592834473 	 --	 --
component_0154_size_7_cutoff_1.0E-20.cm 		1.6322021484375 	 --	 --
component_0155_size_43_cutoff_1.0E-20.cm 		200.60816192626953 	 --	 --
component_0156_size_6_cutoff_1.0E-20.cm 		0 	 --	 --
component_0157_size_7_cutoff_1.0E-20.cm 		0.11394309997558594 	 --	 --
component_0158_size_13_cutoff_1.0E-20.cm 		11.86882209777832 	 --	 --
component_0159_size_7_cutoff_1.0E-20.cm 		3.341829299926758 	 --	 --
component_0160_size_15_cutoff_1.0E-20.cm 		322.74789810180664 	 --	 --
component_0161_size_6_cutoff_1.0E-20.cm 		0 	 --	 --
component_0162_size_18_cutoff_1.0E-20.cm 		147.74859237670898 	 --	 --
component_0163_size_41_cutoff_1.0E-20.cm 		663.0934705734253 	 --	 --
component_0164_size_5_cutoff_1.0E-20.cm 		56.08191680908203 	 --	 --
component_0165_size_4_cutoff_1.0E-20.cm 		20.0 	 --	 --
component_0166_size_5_cutoff_1.0E-20.cm 		0 	 --	 --
component_0167_size_7_cutoff_1.0E-20.cm 		0 	 --	 --
component_0168_size_10_cutoff_1.0E-20.cm 		11.383163452148438 	 --	 --
component_0169_size_7_cutoff_1.0E-20.cm 		34.11728096008301 	 --	 --
component_0170_size_10_cutoff_1.0E-20.cm 		21.647722244262695 	 --	 --
component_0171_size_29_cutoff_1.0E-20.cm 		62.2362174987793 	 --	 --
component_0172_size_21_cutoff_1.0E-20.cm 		5.443696975708008 	 --	 --
component_0173_size_13_cutoff_1.0E-20.cm 		137.47778701782227 	 --	 --
component_0174_size_26_cutoff_1.0E-20.cm 		243.97388076782227 	 --	 --
component_0175_size_4_cutoff_1.0E-20.cm 		0 	 --	 --
component_0176_size_12_cutoff_1.0E-20.cm 		55.05152606964111 	 --	 --
component_0177_size_16_cutoff_1.0E-20.cm 		278.58267402648926 	 --	 --
component_0178_size_9_cutoff_1.0E-20.cm 		0 	 --	 --
component_0179_size_7_cutoff_1.0E-20.cm 		10.504581451416016 	 --	 --
component_0180_size_7_cutoff_1.0E-20.cm 		2.0333404541015625 	 --	 --
component_0181_size_22_cutoff_1.0E-20.cm 		4.04913330078125 	 --	 --
component_0182_size_33_cutoff_1.0E-20.cm 		239.28016567230225 	 --	 --
component_0183_size_9_cutoff_1.0E-20.cm 		11.758079528808594 	 --	 --
component_0184_size_19_cutoff_1.0E-20.cm 		35.15376663208008 	 --	 --
component_0185_size_10_cutoff_1.0E-20.cm 		11.107357025146484 	 --	 --
component_0186_size_4_cutoff_1.0E-20.cm 		0.1830291748046875 	 --	 --
component_0187_size_21_cutoff_1.0E-20.cm 		112.22499752044678 	 --	 --
component_0188_size_6_cutoff_1.0E-20.cm 		0.6232490539550781 	 --	 --
component_0189_size_7_cutoff_1.0E-20.cm 		8.606422424316406 	 --	 --
component_0190_size_12_cutoff_1.0E-20.cm 		22.129743576049805 	 --	 --
component_0191_size_7_cutoff_1.0E-20.cm 		2.5352954864501953 	 --	 --
component_0192_size_7_cutoff_1.0E-20.cm 		0.25527191162109375 	 --	 --
component_0193_size_13_cutoff_1.0E-20.cm 		163.38958168029785 	 --	 --
component_0194_size_6_cutoff_1.0E-20.cm 		60.0 	 --	 --
component_0195_size_16_cutoff_1.0E-20.cm 		167.88937759399414 	 --	 --
component_0196_size_11_cutoff_1.0E-20.cm 		20.0 	 --	 --
component_0197_size_5_cutoff_1.0E-20.cm 		80.0 	 --	 --
component_0198_size_8_cutoff_1.0E-20.cm 		129.53575134277344 	 --	 --
component_0199_size_14_cutoff_1.0E-20.cm 		6.868812561035156 	 --	 --
component_0200_size_13_cutoff_1.0E-20.cm 		29.70406723022461 	 --	 --
component_0201_size_7_cutoff_1.0E-20.cm 		3.6197891235351562 	 --	 --
component_0202_size_43_cutoff_1.0E-20.cm 		905.8309164047241 	 --	 --
component_0203_size_6_cutoff_1.0E-20.cm 		20.0 	 --	 --
component_0204_size_6_cutoff_1.0E-20.cm 		21.237545013427734 	 --	 --
component_0205_size_23_cutoff_1.0E-20.cm 		301.26616859436035 	 --	 --
component_0206_size_23_cutoff_1.0E-20.cm 		315.85326862335205 	 --	 --
component_0207_size_30_cutoff_1.0E-20.cm 		498.76667404174805 	 --	 --
component_0208_size_4_cutoff_1.0E-20.cm 		0.9190788269042969 	 --	 --
component_0209_size_7_cutoff_1.0E-20.cm 		8.704212188720703 	 --	 --
component_0210_size_33_cutoff_1.0E-20.cm 		1284.5614557266235 	 --	 --
component_0211_size_14_cutoff_1.0E-20.cm 		5.663511276245117 	 --	 --
component_0212_size_7_cutoff_1.0E-20.cm 		5.292531967163086 	 --	 --
component_0213_size_4_cutoff_1.0E-20.cm 		20.0 	 --	 --
component_0214_size_10_cutoff_1.0E-20.cm 		41.85942840576172 	 --	 --
component_0215_size_12_cutoff_1.0E-20.cm 		25.553869247436523 	 --	 --
component_0216_size_20_cutoff_1.0E-20.cm 		182.75710487365723 	 --	 --
component_0217_size_22_cutoff_1.0E-20.cm 		206.24154472351074 	 --	 --
component_0218_size_15_cutoff_1.0E-20.cm 		7.387216567993164 	 --	 --
component_0219_size_7_cutoff_1.0E-20.cm 		4.220405578613281 	 --	 --
component_0220_size_4_cutoff_1.0E-20.cm 		0 	 --	 --
component_0221_size_11_cutoff_1.0E-20.cm 		0 	 --	 --
component_0222_size_10_cutoff_1.0E-20.cm 		10.131874084472656 	 --	 --
component_0223_size_8_cutoff_1.0E-20.cm 		1.7447280883789062 	 --	 --
component_0224_size_16_cutoff_1.0E-20.cm 		19.67106819152832 	 --	 --
component_0225_size_11_cutoff_1.0E-20.cm 		55.55270576477051 	 --	 --
component_0226_size_4_cutoff_1.0E-20.cm 		2.356546401977539 	 --	 --
component_0227_size_26_cutoff_1.0E-20.cm 		283.3131847381592 	 --	 --
component_0228_size_6_cutoff_1.0E-20.cm 		0 	 --	 --
component_0229_size_4_cutoff_1.0E-20.cm 		3.9554481506347656 	 --	 --
component_0230_size_6_cutoff_1.0E-20.cm 		3.0757198333740234 	 --	 --
component_0231_size_11_cutoff_1.0E-20.cm 		90.88111686706543 	 --	 --
component_0232_size_29_cutoff_1.0E-20.cm 		496.8478546142578 	 --	 --
component_0233_size_10_cutoff_1.0E-20.cm 		75.85544872283936 	 --	 --
component_0234_size_13_cutoff_1.0E-20.cm 		177.69710063934326 	 --	 --
component_0235_size_8_cutoff_1.0E-20.cm 		8.705907821655273 	 --	 --
component_0236_size_11_cutoff_1.0E-20.cm 		27.866222381591797 	 --	 --
component_0237_size_10_cutoff_1.0E-20.cm 		22.467578887939453 	 --	 --
component_0238_size_27_cutoff_1.0E-20.cm 		92.2932186126709 	 --	 --
component_0239_size_11_cutoff_1.0E-20.cm 		12.065240859985352 	 --	 --
component_0240_size_5_cutoff_1.0E-20.cm 		13.194791793823242 	 --	 --
component_0241_size_6_cutoff_1.0E-20.cm 		0 	 --	 --
component_0242_size_11_cutoff_1.0E-20.cm 		58.691346168518066 	 --	 --
component_0243_size_13_cutoff_1.0E-20.cm 		32.78138732910156 	 --	 --
component_0244_size_8_cutoff_1.0E-20.cm 		8.421440124511719 	 --	 --
component_0245_size_5_cutoff_1.0E-20.cm 		14.39950942993164 	 --	 --
component_0246_size_4_cutoff_1.0E-20.cm 		0 	 --	 --
component_0247_size_10_cutoff_1.0E-20.cm 		1.2953968048095703 	 --	 --
component_0248_size_6_cutoff_1.0E-20.cm 		46.62203025817871 	 --	 --
component_0249_size_8_cutoff_1.0E-20.cm 		80.24581146240234 	 --	 --
component_0250_size_10_cutoff_1.0E-20.cm 		81.38381099700928 	 --	 --
component_0251_size_4_cutoff_1.0E-20.cm 		3.397939682006836 	 --	 --
component_0252_size_11_cutoff_1.0E-20.cm 		213.0104169845581 	 --	 --
component_0253_size_8_cutoff_1.0E-20.cm 		20.568635940551758 	 --	 --
component_0254_size_13_cutoff_1.0E-20.cm 		1.9843063354492188 	 --	 --
component_0255_size_9_cutoff_1.0E-20.cm 		20.0 	 --	 --
component_0256_size_9_cutoff_1.0E-20.cm 		18.631763458251953 	 --	 --
component_0257_size_7_cutoff_1.0E-20.cm 		11.338056564331055 	 --	 --
component_0258_size_4_cutoff_1.0E-20.cm 		20.0 	 --	 --
component_0259_size_4_cutoff_1.0E-20.cm 		0 	 --	 --
component_0260_size_3_cutoff_1.0E-20.cm 		0 	 --	 --
component_0261_size_8_cutoff_1.0E-20.cm 		17.67654037475586 	 --	 --
component_0262_size_14_cutoff_1.0E-20.cm 		0.23044967651367188 	 --	 --
component_0263_size_6_cutoff_1.0E-20.cm 		26.319133758544922 	 --	 --
component_0264_size_15_cutoff_1.0E-20.cm 		39.458927154541016 	 --	 --
component_0265_size_6_cutoff_1.0E-20.cm 		0 	 --	 --
component_0266_size_6_cutoff_1.0E-20.cm 		80.0 	 --	 --
component_0267_size_5_cutoff_1.0E-20.cm 		0 	 --	 --
component_0268_size_6_cutoff_1.0E-20.cm 		5.28740119934082 	 --	 --
component_0269_size_8_cutoff_1.0E-20.cm 		43.56285285949707 	 --	 --
component_0270_size_29_cutoff_1.0E-20.cm 		148.71678161621094 	 --	 --
component_0271_size_11_cutoff_1.0E-20.cm 		138.28563404083252 	 --	 --
component_0272_size_6_cutoff_1.0E-20.cm 		13.584466934204102 	 --	 --
component_0273_size_7_cutoff_1.0E-20.cm 		2.097757339477539 	 --	 --
component_0274_size_14_cutoff_1.0E-20.cm 		44.23356533050537 	 --	 --
component_0275_size_3_cutoff_1.0E-20.cm 		9.207609176635742 	 --	 --
component_0276_size_10_cutoff_1.0E-20.cm 		12.840431213378906 	 --	 --
component_0277_size_7_cutoff_1.0E-20.cm 		2.4082412719726562 	 --	 --
component_0278_size_4_cutoff_1.0E-20.cm 		20.0 	 --	 --
component_0279_size_3_cutoff_1.0E-20.cm 		2.1549015045166016 	 --	 --
component_0280_size_4_cutoff_1.0E-20.cm 		3.4534568786621094 	 --	 --
component_0281_size_4_cutoff_1.0E-20.cm 		20.0 	 --	 --
component_0282_size_11_cutoff_1.0E-20.cm 		50.10085487365723 	 --	 --
component_0283_size_9_cutoff_1.0E-20.cm 		56.07582187652588 	 --	 --
component_0284_size_18_cutoff_1.0E-20.cm 		29.76339340209961 	 --	 --
component_0285_size_22_cutoff_1.0E-20.cm 		50.76415538787842 	 --	 --
component_0286_size_7_cutoff_1.0E-20.cm 		26.340103149414062 	 --	 --
component_0287_size_7_cutoff_1.0E-20.cm 		0 	 --	 --
component_0288_size_6_cutoff_1.0E-20.cm 		23.72545623779297 	 --	 --
component_0289_size_8_cutoff_1.0E-20.cm 		11.508695602416992 	 --	 --
component_0290_size_11_cutoff_1.0E-20.cm 		32.634605407714844 	 --	 --
component_0291_size_10_cutoff_1.0E-20.cm 		2.3697586059570312 	 --	 --
component_0292_size_7_cutoff_1.0E-20.cm 		1.4779319763183594 	 --	 --
component_0293_size_4_cutoff_1.0E-20.cm 		1.1804561614990234 	 --	 --
component_0294_size_6_cutoff_1.0E-20.cm 		21.97654628753662 	 --	 --
component_0295_size_7_cutoff_1.0E-20.cm 		0 	 --	 --
component_0296_size_10_cutoff_1.0E-20.cm 		20.0 	 --	 --
component_0297_size_15_cutoff_1.0E-20.cm 		4.97650146484375 	 --	 --
component_0298_size_7_cutoff_1.0E-20.cm 		1.1938190460205078 	 --	 --
component_0299_size_4_cutoff_1.0E-20.cm 		2.036212921142578 	 --	 --
component_0300_size_12_cutoff_1.0E-20.cm 		36.372530937194824 	 --	 --
component_0301_size_8_cutoff_1.0E-20.cm 		1.853872299194336 	 --	 --
component_0302_size_8_cutoff_1.0E-20.cm 		21.588008880615234 	 --	 --
component_0303_size_6_cutoff_1.0E-20.cm 		0.227020263671875 	 --	 --
component_0304_size_17_cutoff_1.0E-20.cm 		42.96468734741211 	 --	 --
component_0305_size_19_cutoff_1.0E-20.cm 		108.80486106872559 	 --	 --
component_0306_size_4_cutoff_1.0E-20.cm 		20.0 	 --	 --
component_0307_size_4_cutoff_1.0E-20.cm 		1.8260746002197266 	 --	 --
component_0308_size_12_cutoff_1.0E-20.cm 		35.522438049316406 	 --	 --
component_0309_size_6_cutoff_1.0E-20.cm 		31.170777320861816 	 --	 --
component_0310_size_7_cutoff_1.0E-20.cm 		6.174068450927734 	 --	 --
component_0311_size_9_cutoff_1.0E-20.cm 		0 	 --	 --
component_0312_size_10_cutoff_1.0E-20.cm 		81.60733032226562 	 --	 --
component_0313_size_7_cutoff_1.0E-20.cm 		3.1372718811035156 	 --	 --
component_0314_size_6_cutoff_1.0E-20.cm 		0 	 --	 --
component_0315_size_7_cutoff_1.0E-20.cm 		0.22914886474609375 	 --	 --
component_0316_size_10_cutoff_1.0E-20.cm 		37.22861099243164 	 --	 --
component_0317_size_7_cutoff_1.0E-20.cm 		0 	 --	 --
component_0318_size_5_cutoff_1.0E-20.cm 		22.659250259399414 	 --	 --
component_0319_size_3_cutoff_1.0E-20.cm 		0 	 --	 --
component_0320_size_5_cutoff_1.0E-20.cm 		9.42357349395752 	 --	 --
component_0321_size_4_cutoff_1.0E-20.cm 		0 	 --	 --
component_0322_size_7_cutoff_1.0E-20.cm 		0.8061790466308594 	 --	 --
component_0323_size_15_cutoff_1.0E-20.cm 		74.69444847106934 	 --	 --
component_0324_size_6_cutoff_1.0E-20.cm 		21.372718811035156 	 --	 --
component_0325_size_4_cutoff_1.0E-20.cm 		1.886056900024414 	 --	 --
component_0326_size_6_cutoff_1.0E-20.cm 		0 	 --	 --
component_0327_size_15_cutoff_1.0E-20.cm 		2.396364212036133 	 --	 --
component_0328_size_5_cutoff_1.0E-20.cm 		20.0 	 --	 --
component_0329_size_9_cutoff_1.0E-20.cm 		16.253746032714844 	 --	 --
component_0330_size_8_cutoff_1.0E-20.cm 		0.5748424530029297 	 --	 --
component_0331_size_4_cutoff_1.0E-20.cm 		20.0 	 --	 --
component_0332_size_4_cutoff_1.0E-20.cm 		20.0 	 --	 --
component_0333_size_9_cutoff_1.0E-20.cm 		1.5755596160888672 	 --	 --
component_0334_size_9_cutoff_1.0E-20.cm 		30.632774353027344 	 --	 --
component_0335_size_6_cutoff_1.0E-20.cm 		0 	 --	 --
component_0336_size_7_cutoff_1.0E-20.cm 		18.461442947387695 	 --	 --
component_0337_size_8_cutoff_1.0E-20.cm 		4.887393951416016 	 --	 --
component_0338_size_7_cutoff_1.0E-20.cm 		23.109424591064453 	 --	 --
component_0339_size_3_cutoff_1.0E-20.cm 		0.2757244110107422 	 --	 --
component_0340_size_5_cutoff_1.0E-20.cm 		1.0969104766845703 	 --	 --
component_0341_size_9_cutoff_1.0E-20.cm 		29.462657928466797 	 --	 --
component_0342_size_3_cutoff_1.0E-20.cm 		20.0 	 --	 --
component_0343_size_7_cutoff_1.0E-20.cm 		0.5612583160400391 	 --	 --
component_0344_size_7_cutoff_1.0E-20.cm 		0.0 	 --	 --
component_0345_size_5_cutoff_1.0E-20.cm 		0.33724212646484375 	 --	 --
component_0346_size_6_cutoff_1.0E-20.cm 		0.9166717529296875 	 --	 --
component_0347_size_4_cutoff_1.0E-20.cm 		0.9897003173828125 	 --	 --
component_0348_size_5_cutoff_1.0E-20.cm 		38.962974548339844 	 --	 --
component_0349_size_10_cutoff_1.0E-20.cm 		0 	 --	 --
component_0350_size_7_cutoff_1.0E-20.cm 		0 	 --	 --
component_0351_size_8_cutoff_1.0E-20.cm 		10.806180953979492 	 --	 --
component_0352_size_6_cutoff_1.0E-20.cm 		1.17620849609375 	 --	 --
component_0353_size_4_cutoff_1.0E-20.cm 		3.4317989349365234 	 --	 --
component_0354_size_3_cutoff_1.0E-20.cm 		20.0 	 --	 --
component_0355_size_6_cutoff_1.0E-20.cm 		26.465972900390625 	 --	 --
component_0356_size_9_cutoff_1.0E-20.cm 		22.585460662841797 	 --	 --
component_0357_size_4_cutoff_1.0E-20.cm 		3.858837127685547 	 --	 --
component_0358_size_13_cutoff_1.0E-20.cm 		18.274789810180664 	 --	 --
component_0359_size_12_cutoff_1.0E-20.cm 		83.1594181060791 	 --	 --
component_0360_size_8_cutoff_1.0E-20.cm 		7.173925399780273 	 --	 --
component_0361_size_18_cutoff_1.0E-20.cm 		24.176090240478516 	 --	 --
component_0362_size_17_cutoff_1.0E-20.cm 		22.595654487609863 	 --	 --
component_0363_size_32_cutoff_1.0E-20.cm 		1574.6302289962769 	 --	 --
component_0364_size_9_cutoff_1.0E-20.cm 		47.653212547302246 	 --	 --
component_0365_size_3_cutoff_1.0E-20.cm 		0 	 --	 --
component_0366_size_6_cutoff_1.0E-20.cm 		0 	 --	 --
component_0367_size_12_cutoff_1.0E-20.cm 		0.5879364013671875 	 --	 --
component_0368_size_6_cutoff_1.0E-20.cm 		0 	 --	 --
component_0369_size_7_cutoff_1.0E-20.cm 		5.637119293212891 	 --	 --
component_0370_size_16_cutoff_1.0E-20.cm 		40.59567070007324 	 --	 --
component_0371_size_4_cutoff_1.0E-20.cm 		20.0 	 --	 --
component_0372_size_10_cutoff_1.0E-20.cm 		0 	 --	 --
component_0373_size_11_cutoff_1.0E-20.cm 		7.845241546630859 	 --	 --
component_0374_size_9_cutoff_1.0E-20.cm 		5.28887939453125 	 --	 --
component_0375_size_12_cutoff_1.0E-20.cm 		26.620285034179688 	 --	 --
component_0376_size_14_cutoff_1.0E-20.cm 		34.14388656616211 	 --	 --
component_0377_size_2_cutoff_1.0E-20.cm 		0 	 --	 --
component_0378_size_18_cutoff_1.0E-20.cm 		232.5548553466797 	 --	 --
component_0379_size_4_cutoff_1.0E-20.cm 		0.2974815368652344 	 --	 --
component_0380_size_7_cutoff_1.0E-20.cm 		0 	 --	 --
component_0381_size_16_cutoff_1.0E-20.cm 		288.28953552246094 	 --	 --
component_0382_size_9_cutoff_1.0E-20.cm 		31.20510482788086 	 --	 --
component_0383_size_4_cutoff_1.0E-20.cm 		0 	 --	 --
component_0384_size_11_cutoff_1.0E-20.cm 		2.481485366821289 	 --	 --
component_0385_size_5_cutoff_1.0E-20.cm 		53.04576110839844 	 --	 --
component_0386_size_10_cutoff_1.0E-20.cm 		2.9479007720947266 	 --	 --
component_0387_size_9_cutoff_1.0E-20.cm 		84.42467308044434 	 --	 --
component_0388_size_4_cutoff_1.0E-20.cm 		11.720490455627441 	 --	 --
component_0389_size_11_cutoff_1.0E-20.cm 		93.28980827331543 	 --	 --
component_0390_size_5_cutoff_1.0E-20.cm 		0.20412063598632812 	 --	 --
component_0391_size_5_cutoff_1.0E-20.cm 		0.3609123229980469 	 --	 --
component_0392_size_7_cutoff_1.0E-20.cm 		0 	 --	 --
component_0393_size_8_cutoff_1.0E-20.cm 		4.151096343994141 	 --	 --
component_0394_size_7_cutoff_1.0E-20.cm 		19.023500442504883 	 --	 --
component_0395_size_7_cutoff_1.0E-20.cm 		3.7920570373535156 	 --	 --
component_0396_size_7_cutoff_1.0E-20.cm 		0.2922554016113281 	 --	 --
component_0397_size_10_cutoff_1.0E-20.cm 		21.989778518676758 	 --	 --
component_0398_size_4_cutoff_1.0E-20.cm 		0 	 --	 --
component_0399_size_4_cutoff_1.0E-20.cm 		0 	 --	 --
component_0400_size_6_cutoff_1.0E-20.cm 		3.8169708251953125 	 --	 --
component_0401_size_7_cutoff_1.0E-20.cm 		0.1426677703857422 	 --	 --
component_0402_size_4_cutoff_1.0E-20.cm 		1.2518119812011719 	 --	 --
component_0403_size_5_cutoff_1.0E-20.cm 		0.13100433349609375 	 --	 --
component_0404_size_8_cutoff_1.0E-20.cm 		50.94816970825195 	 --	 --
component_0405_size_4_cutoff_1.0E-20.cm 		19.427127838134766 	 --	 --
component_0406_size_8_cutoff_1.0E-20.cm 		7.340522766113281 	 --	 --
component_0407_size_7_cutoff_1.0E-20.cm 		0 	 --	 --
component_0408_size_4_cutoff_1.0E-20.cm 		2.958606719970703 	 --	 --
component_0409_size_7_cutoff_1.0E-20.cm 		21.792192459106445 	 --	 --
component_0410_size_7_cutoff_1.0E-20.cm 		20.16655158996582 	 --	 --
component_0411_size_6_cutoff_1.0E-20.cm 		7.382698059082031 	 --	 --
component_0412_size_6_cutoff_1.0E-20.cm 		0 	 --	 --
component_0413_size_5_cutoff_1.0E-20.cm 		45.841636657714844 	 --	 --
component_0414_size_3_cutoff_1.0E-20.cm 		9.958606719970703 	 --	 --
component_0415_size_7_cutoff_1.0E-20.cm 		4.893762588500977 	 --	 --
component_0416_size_4_cutoff_1.0E-20.cm 		0.7447280883789062 	 --	 --
component_0417_size_9_cutoff_1.0E-20.cm 		25.50118064880371 	 --	 --
component_0418_size_7_cutoff_1.0E-20.cm 		20.310157775878906 	 --	 --
component_0419_size_7_cutoff_1.0E-20.cm 		0 	 --	 --
component_0420_size_9_cutoff_1.0E-20.cm 		4.0244293212890625 	 --	 --
component_0421_size_7_cutoff_1.0E-20.cm 		3.6566715240478516 	 --	 --
component_0422_size_7_cutoff_1.0E-20.cm 		21.396869659423828 	 --	 --
component_0423_size_7_cutoff_1.0E-20.cm 		10.806180953979492 	 --	 --
component_0424_size_10_cutoff_1.0E-20.cm 		66.56407356262207 	 --	 --
component_0425_size_6_cutoff_1.0E-20.cm 		4.3414764404296875 	 --	 --
component_0426_size_4_cutoff_1.0E-20.cm 		0.2922554016113281 	 --	 --
component_0427_size_7_cutoff_1.0E-20.cm 		28.8272705078125 	 --	 --
component_0428_size_6_cutoff_1.0E-20.cm 		80.0 	 --	 --
component_0429_size_15_cutoff_1.0E-20.cm 		95.35470390319824 	 --	 --
component_0430_size_3_cutoff_1.0E-20.cm 		0.5682010650634766 	 --	 --
component_0431_size_4_cutoff_1.0E-20.cm 		20.0 	 --	 --
component_0432_size_11_cutoff_1.0E-20.cm 		0 	 --	 --
component_0433_size_10_cutoff_1.0E-20.cm 		150.16692352294922 	 --	 --
component_0434_size_7_cutoff_1.0E-20.cm 		2.4879112243652344 	 --	 --
component_0435_size_19_cutoff_1.0E-20.cm 		148.13263511657715 	 --	 --
component_0436_size_4_cutoff_1.0E-20.cm 		20.0 	 --	 --
component_0437_size_4_cutoff_1.0E-20.cm 		20.0 	 --	 --
component_0438_size_4_cutoff_1.0E-20.cm 		1.113943099975586 	 --	 --
component_0439_size_2_cutoff_1.0E-20.cm 		0 	 --	 --
component_0440_size_5_cutoff_1.0E-20.cm 		4.658393859863281 	 --	 --
component_0441_size_4_cutoff_1.0E-20.cm 		0.4149742126464844 	 --	 --
component_0442_size_4_cutoff_1.0E-20.cm 		2.26007080078125 	 --	 --
component_0443_size_5_cutoff_1.0E-20.cm 		0 	 --	 --
component_0444_size_4_cutoff_1.0E-20.cm 		5.12493896484375 	 --	 --
component_0445_size_7_cutoff_1.0E-20.cm 		45.20974349975586 	 --	 --
component_0446_size_4_cutoff_1.0E-20.cm 		1.7958793640136719 	 --	 --
component_0447_size_6_cutoff_1.0E-20.cm 		61.070579528808594 	 --	 --
